{
    "KPlugin": {
        "Name": "Quake Konsole",
        "Description": "Make Konsole behave like Quake console",
        "Icon": "preferences-system-windows",
        
        "Authors": [
            {
                "Email": "bluebucket@bluebucket.org",
                "Name": "bluebucket"
            }
        ],
        "Id": "quake-konsole",
        "Version": "1.0",
        "License": "GPLv3",
        "Website": "https://gitlab.com/bluebucket/kwin-script-quake-konsole"
    },
    "X-Plasma-API": "javascript",
    "X-Plasma-MainScript": "code/main.js",
    "KPackageStructure": "KWin/Script"
}
